\begin{plantuml}
@startuml
skinparam monochrome true
skinparam shadowing false
skinparam ActivityBackgroundColor White
skinparam ActivityDiamondBackgroundColor White
skinparam ActivityFontName DejaVu
start
:Initialise cache with default model;
repeat
:Read next object;
:Add object to evaluation function;
:Compress object with current model;
if (Compression ratio?) then (acceptable)
    :Add compressed object to cache;
    if (Improve model?) then (yes)
        :Improve model;
        :Add model to cache;
    else (no)
    endif
else (unacceptable)
    :Generate new model;
    :Add model to cache;
    if (Significant change in\ncompression ratio?) then (yes)
        :Clear cache;
        :Add entire data set to cache;
    else (no)
        :Add object to cache;
    endif

endif

repeat while (More data?) is (yes)
:Compress cache;

stop
@enduml
\end{plantuml}