\begin{plantuml}
@startuml
skinparam defaultTextAlignment center
skinparam SequenceBoxFontName DejaVu
skinparam SequenceReferenceFontName DejaVu

!define ICONURL https://raw.githubusercontent.com/tupadr3/plantuml-icon-font-sprites/v2.0.0

!include <tupadr3/common>
!include <tupadr3/font-awesome-5/user_astronaut>
!include <tupadr3/font-awesome-5/robot>
!include <tupadr3/font-awesome-5/database>
!include <tupadr3/font-awesome-5/user_graduate>
!include <tupadr3/devicons/haskell>
!include <tupadr3/govicons/microscope>

FA5_USER_GRADUATE(human,Human\nscientist,participant)
FA5_USER_ASTRONAUT(cosmo,Robotic\ncosmonaut,participant) #YellowGreen
FA5_ROBOT(ai,Intrinsic\nmotivation,participant) #YellowGreen
GOV_MICROSCOPE(science,Scientific\ninstruments,participant) #BlueViolet
DEV_HASKELL(comp,Compressor,participant) #Fuchsia
FA5_DATABASE(db,Stored\ndata,participant) #DarkMagenta
human -> cosmo: Send to Titan
loop
cosmo -> ai: Ask for action to perform
ai -> science: Perform queued experiment
science ->comp: Compress results
comp -> db: Store compressed\nresults and model
comp -> ai: Report how interesting\nthe data was
ai -> cosmo: Choose new experiment
end
human -> cosmo: Ask for results
cosmo <-> db: Retrieve compressed\nmessage payload
activate cosmo
||100||
cosmo --> human: Transmit message
deactivate cosmo
cosmo -> db !!: Delete no-longer-useful\ndata, keep model
@enduml
\end{plantuml}